{
  "message": "Popular Playlists",
  "playlists": {
    "href": "https://api.spotify.com/v1/browse/featured-playlists?country=NL&timestamp=2023-11-12T10%3A19%3A19&offset=0&limit=20",
    "items": [
      {
        "collaborative": false,
        "description": "De 50 populairste hits van Nederland. Cover: Zoë Tauran",
        "external_urls": {
          "spotify": "https://open.spotify.com/playlist/37i9dQZF1DWSBi5svWQ9Nk"
        },
        "href": "https://api.spotify.com/v1/playlists/37i9dQZF1DWSBi5svWQ9Nk",
        "id": "37i9dQZF1DWSBi5svWQ9Nk",
        "images": [
          {
            "height": null,
            "url": "https://i.scdn.co/image/ab67706f000000037c45fe0eec93f967f471966c",
            "width": null
          }
        ],
        "name": "Top Hits NL",
        "owner": {
          "display_name": "Spotify",
          "external_urls": {
            "spotify": "https://open.spotify.com/user/spotify"
          },
          "href": "https://api.spotify.com/v1/users/spotify",
          "id": "spotify",
          "type": "user",
          "uri": "spotify:user:spotify"
        },
        "primary_color": null,
        "public": null,
        "snapshot_id": "MTY5OTU3MDgwMCwwMDAwMDAwMDE2YTM0NjgzODNkMDAzZjEzMzgzMzExNWI0MDYxZTYw",
        "tracks": {
          "href": "https://api.spotify.com/v1/playlists/37i9dQZF1DWSBi5svWQ9Nk/tracks",
          "total": 50
        },
        "type": "playlist",
        "uri": "spotify:playlist:37i9dQZF1DWSBi5svWQ9Nk"
      },
      {
        "collaborative": false,
        "description": "De nieuwste releases elke vrijdag op Spotify! Cover: Dua Lipa",
        "external_urls": {
          "spotify": "https://open.spotify.com/playlist/37i9dQZF1DXb5BKLTO7ULa"
        },
        "href": "https://api.spotify.com/v1/playlists/37i9dQZF1DXb5BKLTO7ULa",
        "id": "37i9dQZF1DXb5BKLTO7ULa",
        "images": [
          {
            "height": null,
            "url": "https://i.scdn.co/image/ab67706f000000037780af60da363ed7e23a385b",
            "width": null
          }
        ],
        "name": "New Music Friday NL",
        "owner": {
          "display_name": "Spotify",
          "external_urls": {
            "spotify": "https://open.spotify.com/user/spotify"
          },
          "href": "https://api.spotify.com/v1/users/spotify",
          "id": "spotify",
          "type": "user",
          "uri": "spotify:user:spotify"
        },
        "primary_color": null,
        "public": null,
        "snapshot_id": "MTY5OTYxMDI2OCwwMDAwMDAwMGU3NzQ5N2E5ZTUyYTMxN2Y1ZTI4YTFhNDZmYjIwODgy",
        "tracks": {
          "href": "https://api.spotify.com/v1/playlists/37i9dQZF1DXb5BKLTO7ULa/tracks",
          "total": 104
        },
        "type": "playlist",
        "uri": "spotify:playlist:37i9dQZF1DXb5BKLTO7ULa"
      },
      {
        "collaborative": false,
        "description": "De beste Nederlandse hits van vroeger en nu. Cover: Tino Martin & Mart Hoogkamer",
        "external_urls": {
          "spotify": "https://open.spotify.com/playlist/37i9dQZF1DXdKMCnEhDnDL"
        },
        "href": "https://api.spotify.com/v1/playlists/37i9dQZF1DXdKMCnEhDnDL",
        "id": "37i9dQZF1DXdKMCnEhDnDL",
        "images": [
          {
            "height": null,
            "url": "https://i.scdn.co/image/ab67706f00000003d93ec9896683ab78fa949391",
            "width": null
          }
        ],
        "name": "Beste van NL",
        "owner": {
          "display_name": "Spotify",
          "external_urls": {
            "spotify": "https://open.spotify.com/user/spotify"
          },
          "href": "https://api.spotify.com/v1/users/spotify",
          "id": "spotify",
          "type": "user",
          "uri": "spotify:user:spotify"
        },
        "primary_color": null,
        "public": null,
        "snapshot_id": "MTY5OTYwNjc1NywwMDAwMDAwMGUyMTFiODg2YTBhNGYzMzYxMzg3MWM0MDlkYzczNjE0",
        "tracks": {
          "href": "https://api.spotify.com/v1/playlists/37i9dQZF1DXdKMCnEhDnDL/tracks",
          "total": 100
        },
        "type": "playlist",
        "uri": "spotify:playlist:37i9dQZF1DXdKMCnEhDnDL"
      },
      {
        "collaborative": false,
        "description": "Ares op de cover van Woordenschat!",
        "external_urls": {
          "spotify": "https://open.spotify.com/playlist/37i9dQZF1DX19xRtMyA5LM"
        },
        "href": "https://api.spotify.com/v1/playlists/37i9dQZF1DX19xRtMyA5LM",
        "id": "37i9dQZF1DX19xRtMyA5LM",
        "images": [
          {
            "height": null,
            "url": "https://i.scdn.co/image/ab67706f0000000383b368a4494748770af1508c",
            "width": null
          }
        ],
        "name": "Woordenschat",
        "owner": {
          "display_name": "Spotify",
          "external_urls": {
            "spotify": "https://open.spotify.com/user/spotify"
          },
          "href": "https://api.spotify.com/v1/users/spotify",
          "id": "spotify",
          "type": "user",
          "uri": "spotify:user:spotify"
        },
        "primary_color": null,
        "public": null,
        "snapshot_id": "MTY5OTU3MDgwMCwwMDAwMDAwMGI4Njc3Yjk5MzQ2NmM2YjZjMjc5YTg1N2QxOWRkYzNh",
        "tracks": {
          "href": "https://api.spotify.com/v1/playlists/37i9dQZF1DX19xRtMyA5LM/tracks",
          "total": 60
        },
        "type": "playlist",
        "uri": "spotify:playlist:37i9dQZF1DX19xRtMyA5LM"
      },
      {
        "collaborative": false,
        "description": "De grootste hits uit de kroeg in één playlist.",
        "external_urls": {
          "spotify": "https://open.spotify.com/playlist/37i9dQZF1DWUppGmuwT9c7"
        },
        "href": "https://api.spotify.com/v1/playlists/37i9dQZF1DWUppGmuwT9c7",
        "id": "37i9dQZF1DWUppGmuwT9c7",
        "images": [
          {
            "height": null,
            "url": "https://i.scdn.co/image/ab67706f00000003d307684e485446632dce60ab",
            "width": null
          }
        ],
        "name": "Kroegenhits",
        "owner": {
          "display_name": "Spotify",
          "external_urls": {
            "spotify": "https://open.spotify.com/user/spotify"
          },
          "href": "https://api.spotify.com/v1/users/spotify",
          "id": "spotify",
          "type": "user",
          "uri": "spotify:user:spotify"
        },
        "primary_color": null,
        "public": null,
        "snapshot_id": "MTY5OTYwNTU0MywwMDAwMDAwMDM3YjgxOTUzMzRjZjUyYzM0ODkyNGNkMDRiMTdiOGJl",
        "tracks": {
          "href": "https://api.spotify.com/v1/playlists/37i9dQZF1DWUppGmuwT9c7/tracks",
          "total": 79
        },
        "type": "playlist",
        "uri": "spotify:playlist:37i9dQZF1DWUppGmuwT9c7"
      },
      {
        "collaborative": false,
        "description": "Koffie met gemoedelijke muziek op de achtergrond.",
        "external_urls": {
          "spotify": "https://open.spotify.com/playlist/37i9dQZF1DWYPwGkJoztcR"
        },
        "href": "https://api.spotify.com/v1/playlists/37i9dQZF1DWYPwGkJoztcR",
        "id": "37i9dQZF1DWYPwGkJoztcR",
        "images": [
          {
            "height": null,
            "url": "https://i.scdn.co/image/ab67706f0000000358e9793722274f9d7b7e85e6",
            "width": null
          }
        ],
        "name": "'t Koffiehuis",
        "owner": {
          "display_name": "Spotify",
          "external_urls": {
            "spotify": "https://open.spotify.com/user/spotify"
          },
          "href": "https://api.spotify.com/v1/users/spotify",
          "id": "spotify",
          "type": "user",
          "uri": "spotify:user:spotify"
        },
        "primary_color": null,
        "public": null,
        "snapshot_id": "MTY5OTU3MDgwMCwwMDAwMDAwMGYyOTQ4MWE1NTkyMzcyNWU5NTRmYzY1YzU0ZjBlMGEx",
        "tracks": {
          "href": "https://api.spotify.com/v1/playlists/37i9dQZF1DWYPwGkJoztcR/tracks",
          "total": 100
        },
        "type": "playlist",
        "uri": "spotify:playlist:37i9dQZF1DWYPwGkJoztcR"
      },
      {
        "collaborative": false,
        "description": "Niks aan te doen, Winter 2023 is coming! ",
        "external_urls": {
          "spotify": "https://open.spotify.com/playlist/37i9dQZF1DXcx1szy2g67M"
        },
        "href": "https://api.spotify.com/v1/playlists/37i9dQZF1DXcx1szy2g67M",
        "id": "37i9dQZF1DXcx1szy2g67M",
        "images": [
          {
            "height": null,
            "url": "https://i.scdn.co/image/ab67706f00000003f2338153122480fcf814c326",
            "width": null
          }
        ],
        "name": "Winter '23",
        "owner": {
          "display_name": "Spotify",
          "external_urls": {
            "spotify": "https://open.spotify.com/user/spotify"
          },
          "href": "https://api.spotify.com/v1/users/spotify",
          "id": "spotify",
          "type": "user",
          "uri": "spotify:user:spotify"
        },
        "primary_color": null,
        "public": null,
        "snapshot_id": "MTY5OTU3MDgwMCwwMDAwMDAwMGIzZTE0YmM1ZTRhMDBjMDMzZTJkNjFmNGI3ZTA2ZWU2",
        "tracks": {
          "href": "https://api.spotify.com/v1/playlists/37i9dQZF1DXcx1szy2g67M/tracks",
          "total": 94
        },
        "type": "playlist",
        "uri": "spotify:playlist:37i9dQZF1DXcx1szy2g67M"
      },
      {
        "collaborative": false,
        "description": "De beste en nieuwste dance hits. Cover: La Fuente",
        "external_urls": {
          "spotify": "https://open.spotify.com/playlist/37i9dQZF1DWTwCImwcYjDL"
        },
        "href": "https://api.spotify.com/v1/playlists/37i9dQZF1DWTwCImwcYjDL",
        "id": "37i9dQZF1DWTwCImwcYjDL",
        "images": [
          {
            "height": null,
            "url": "https://i.scdn.co/image/ab67706f00000003a7499187ccad0339c25e862e",
            "width": null
          }
        ],
        "name": "360 Dance",
        "owner": {
          "display_name": "Spotify",
          "external_urls": {
            "spotify": "https://open.spotify.com/user/spotify"
          },
          "href": "https://api.spotify.com/v1/users/spotify",
          "id": "spotify",
          "type": "user",
          "uri": "spotify:user:spotify"
        },
        "primary_color": null,
        "public": null,
        "snapshot_id": "MTY5OTU3MDgwMCwwMDAwMDAwMGViZjU1MmNlNWI2ODUwYzI3YmFjNTA5ODlhZDA0NmQz",
        "tracks": {
          "href": "https://api.spotify.com/v1/playlists/37i9dQZF1DWTwCImwcYjDL/tracks",
          "total": 50
        },
        "type": "playlist",
        "uri": "spotify:playlist:37i9dQZF1DWTwCImwcYjDL"
      },
      {
        "collaborative": false,
        "description": "Luister naar de Top 2000 van NPO Radio 2! - Editie 2022.",
        "external_urls": {
          "spotify": "https://open.spotify.com/playlist/37i9dQZF1DWTmvXBN4DgpA"
        },
        "href": "https://api.spotify.com/v1/playlists/37i9dQZF1DWTmvXBN4DgpA",
        "id": "37i9dQZF1DWTmvXBN4DgpA",
        "images": [
          {
            "height": null,
            "url": "https://i.scdn.co/image/ab67706f00000003ed127f34f1f01cbdb5dfd9fa",
            "width": null
          }
        ],
        "name": "Top 2000",
        "owner": {
          "display_name": "Spotify",
          "external_urls": {
            "spotify": "https://open.spotify.com/user/spotify"
          },
          "href": "https://api.spotify.com/v1/users/spotify",
          "id": "spotify",
          "type": "user",
          "uri": "spotify:user:spotify"
        },
        "primary_color": null,
        "public": null,
        "snapshot_id": "MTY5NTgyOTM3NiwwMDAwMDAwMDZmNTJkMmQ1YjJjZTA5NmM2NzQ4MjU5MWFhOTZjNjk5",
        "tracks": {
          "href": "https://api.spotify.com/v1/playlists/37i9dQZF1DWTmvXBN4DgpA/tracks",
          "total": 1999
        },
        "type": "playlist",
        "uri": "spotify:playlist:37i9dQZF1DWTmvXBN4DgpA"
      },
      {
        "collaborative": false,
        "description": "Kick back to the best new and recent chill hits.",
        "external_urls": {
          "spotify": "https://open.spotify.com/playlist/37i9dQZF1DX4WYpdgoIcn6"
        },
        "href": "https://api.spotify.com/v1/playlists/37i9dQZF1DX4WYpdgoIcn6",
        "id": "37i9dQZF1DX4WYpdgoIcn6",
        "images": [
          {
            "height": null,
            "url": "https://i.scdn.co/image/ab67706f0000000386607d3edd412dcdf39c645a",
            "width": null
          }
        ],
        "name": "Chill Hits",
        "owner": {
          "display_name": "Spotify",
          "external_urls": {
            "spotify": "https://open.spotify.com/user/spotify"
          },
          "href": "https://api.spotify.com/v1/users/spotify",
          "id": "spotify",
          "type": "user",
          "uri": "spotify:user:spotify"
        },
        "primary_color": null,
        "public": null,
        "snapshot_id": "MTY5NzcyNzExMiwwMDAwMDAwMGExMTc5MTJhZGIzOTcwMzM3NmI0OWE3ZGU1MWM0MjJm",
        "tracks": {
          "href": "https://api.spotify.com/v1/playlists/37i9dQZF1DX4WYpdgoIcn6/tracks",
          "total": 130
        },
        "type": "playlist",
        "uri": "spotify:playlist:37i9dQZF1DX4WYpdgoIcn6"
      },
      {
        "collaborative": false,
        "description": "Dua Lipa is on top of the Hottest 50!",
        "external_urls": {
          "spotify": "https://open.spotify.com/playlist/37i9dQZF1DXcBWIGoYBM5M"
        },
        "href": "https://api.spotify.com/v1/playlists/37i9dQZF1DXcBWIGoYBM5M",
        "id": "37i9dQZF1DXcBWIGoYBM5M",
        "images": [
          {
            "height": null,
            "url": "https://i.scdn.co/image/ab67706f00000003eaa44a568d7c409188d72afd",
            "width": null
          }
        ],
        "name": "Today’s Top Hits",
        "owner": {
          "display_name": "Spotify",
          "external_urls": {
            "spotify": "https://open.spotify.com/user/spotify"
          },
          "href": "https://api.spotify.com/v1/users/spotify",
          "id": "spotify",
          "type": "user",
          "uri": "spotify:user:spotify"
        },
        "primary_color": null,
        "public": null,
        "snapshot_id": "MTY5OTYyODMzMiwwMDAwMDAwMDA4YmE0NjJiZTkxODU2M2QzNzliMzExNTRlNDI4YzBj",
        "tracks": {
          "href": "https://api.spotify.com/v1/playlists/37i9dQZF1DXcBWIGoYBM5M/tracks",
          "total": 50
        },
        "type": "playlist",
        "uri": "spotify:playlist:37i9dQZF1DXcBWIGoYBM5M"
      },
      {
        "collaborative": false,
        "description": "Motion, fissa & good vibes! Cover: Yssine",
        "external_urls": {
          "spotify": "https://open.spotify.com/playlist/37i9dQZF1DWXHyhanaNMoy"
        },
        "href": "https://api.spotify.com/v1/playlists/37i9dQZF1DWXHyhanaNMoy",
        "id": "37i9dQZF1DWXHyhanaNMoy",
        "images": [
          {
            "height": null,
            "url": "https://i.scdn.co/image/ab67706f000000033705116629ed246d27b1eb22",
            "width": null
          }
        ],
        "name": "La Vida Loca",
        "owner": {
          "display_name": "Spotify",
          "external_urls": {
            "spotify": "https://open.spotify.com/user/spotify"
          },
          "href": "https://api.spotify.com/v1/users/spotify",
          "id": "spotify",
          "type": "user",
          "uri": "spotify:user:spotify"
        },
        "primary_color": null,
        "public": null,
        "snapshot_id": "MTY5OTU3MDgwMCwwMDAwMDAwMGI2YjYxZjkzMjE5NzA4N2EwZDIwYzg2ZjA4YTY3NmUz",
        "tracks": {
          "href": "https://api.spotify.com/v1/playlists/37i9dQZF1DWXHyhanaNMoy/tracks",
          "total": 69
        },
        "type": "playlist",
        "uri": "spotify:playlist:37i9dQZF1DWXHyhanaNMoy"
      },
      {
        "collaborative": false,
        "description": "De nieuwste Nederlandse liedjes! Cover: FLEMMING & Boef",
        "external_urls": {
          "spotify": "https://open.spotify.com/playlist/37i9dQZF1DWUX3x84bv557"
        },
        "href": "https://api.spotify.com/v1/playlists/37i9dQZF1DWUX3x84bv557",
        "id": "37i9dQZF1DWUX3x84bv557",
        "images": [
          {
            "height": null,
            "url": "https://i.scdn.co/image/ab67706f00000003ea8e82762b00dc28295f83a3",
            "width": null
          }
        ],
        "name": "Je Moerstaal",
        "owner": {
          "display_name": "Spotify",
          "external_urls": {
            "spotify": "https://open.spotify.com/user/spotify"
          },
          "href": "https://api.spotify.com/v1/users/spotify",
          "id": "spotify",
          "type": "user",
          "uri": "spotify:user:spotify"
        },
        "primary_color": null,
        "public": null,
        "snapshot_id": "MTY5OTU3MDgwMCwwMDAwMDAwMGIyMTExZDFlNzAzZGQyNDQzZjdjMTM2MTY1MmU2NTUy",
        "tracks": {
          "href": "https://api.spotify.com/v1/playlists/37i9dQZF1DWUX3x84bv557/tracks",
          "total": 70
        },
        "type": "playlist",
        "uri": "spotify:playlist:37i9dQZF1DWUX3x84bv557"
      },
      {
        "collaborative": false,
        "description": "The biggest Christmas songs of all time.",
        "external_urls": {
          "spotify": "https://open.spotify.com/playlist/37i9dQZF1DX0Yxoavh5qJV"
        },
        "href": "https://api.spotify.com/v1/playlists/37i9dQZF1DX0Yxoavh5qJV",
        "id": "37i9dQZF1DX0Yxoavh5qJV",
        "images": [
          {
            "height": null,
            "url": "https://i.scdn.co/image/ab67706f00000003ef53563c4fa1187c7537f13f",
            "width": null
          }
        ],
        "name": "Christmas Hits",
        "owner": {
          "display_name": "Spotify",
          "external_urls": {
            "spotify": "https://open.spotify.com/user/spotify"
          },
          "href": "https://api.spotify.com/v1/users/spotify",
          "id": "spotify",
          "type": "user",
          "uri": "spotify:user:spotify"
        },
        "primary_color": null,
        "public": null,
        "snapshot_id": "MTY5OTMxMjg4MSwwMDAwMDAwMDg0NzkxOWFjZDFmZDBmMzcyMWNiMzY3YTIyMTY0OGNj",
        "tracks": {
          "href": "https://api.spotify.com/v1/playlists/37i9dQZF1DX0Yxoavh5qJV/tracks",
          "total": 100
        },
        "type": "playlist",
        "uri": "spotify:playlist:37i9dQZF1DX0Yxoavh5qJV"
      },
      {
        "collaborative": false,
        "description": "Beste van Hollands en het levenslied. Cover: André Hazes Jr",
        "external_urls": {
          "spotify": "https://open.spotify.com/playlist/37i9dQZF1DWTS9w7exPdXE"
        },
        "href": "https://api.spotify.com/v1/playlists/37i9dQZF1DWTS9w7exPdXE",
        "id": "37i9dQZF1DWTS9w7exPdXE",
        "images": [
          {
            "height": null,
            "url": "https://i.scdn.co/image/ab67706f000000030a3d7fad42e0f0b4e97c5163",
            "width": null
          }
        ],
        "name": "Hollandse Meezingers",
        "owner": {
          "display_name": "Spotify",
          "external_urls": {
            "spotify": "https://open.spotify.com/user/spotify"
          },
          "href": "https://api.spotify.com/v1/users/spotify",
          "id": "spotify",
          "type": "user",
          "uri": "spotify:user:spotify"
        },
        "primary_color": null,
        "public": null,
        "snapshot_id": "MTY5OTU0NTMzNiwwMDAwMDAwMDA0MWM1NjBmNzQyYzRmZWViMjQ3ZDM0ODcyMGI5OGFh",
        "tracks": {
          "href": "https://api.spotify.com/v1/playlists/37i9dQZF1DWTS9w7exPdXE/tracks",
          "total": 80
        },
        "type": "playlist",
        "uri": "spotify:playlist:37i9dQZF1DWTS9w7exPdXE"
      },
      {
        "collaborative": false,
        "description": "",
        "external_urls": {
          "spotify": "https://open.spotify.com/playlist/37i9dQZF1DWWMOmoXKqHTD"
        },
        "href": "https://api.spotify.com/v1/playlists/37i9dQZF1DWWMOmoXKqHTD",
        "id": "37i9dQZF1DWWMOmoXKqHTD",
        "images": [
          {
            "height": null,
            "url": "https://i.scdn.co/image/ab67706f00000003ffa215be1a4c64e3cbf59d1e",
            "width": null
          }
        ],
        "name": "Songs to Sing in the Car",
        "owner": {
          "display_name": "Spotify",
          "external_urls": {
            "spotify": "https://open.spotify.com/user/spotify"
          },
          "href": "https://api.spotify.com/v1/users/spotify",
          "id": "spotify",
          "type": "user",
          "uri": "spotify:user:spotify"
        },
        "primary_color": null,
        "public": null,
        "snapshot_id": "MTY4OTEwMDkzMCwwMDAwMDAwMDg4N2I2MTFjNTA5ZWY5OTI5YWYxMjE2YTQwMTBmODc2",
        "tracks": {
          "href": "https://api.spotify.com/v1/playlists/37i9dQZF1DWWMOmoXKqHTD/tracks",
          "total": 100
        },
        "type": "playlist",
        "uri": "spotify:playlist:37i9dQZF1DWWMOmoXKqHTD"
      },
      {
        "collaborative": false,
        "description": "Voel je goed met deze tijdloze Happy Tunes!",
        "external_urls": {
          "spotify": "https://open.spotify.com/playlist/37i9dQZF1DX9u7XXOp0l5L"
        },
        "href": "https://api.spotify.com/v1/playlists/37i9dQZF1DX9u7XXOp0l5L",
        "id": "37i9dQZF1DX9u7XXOp0l5L",
        "images": [
          {
            "height": null,
            "url": "https://i.scdn.co/image/ab67706f0000000311c8c50b9f59131c5cd44631",
            "width": null
          }
        ],
        "name": "Happy Tunes",
        "owner": {
          "display_name": "Spotify",
          "external_urls": {
            "spotify": "https://open.spotify.com/user/spotify"
          },
          "href": "https://api.spotify.com/v1/users/spotify",
          "id": "spotify",
          "type": "user",
          "uri": "spotify:user:spotify"
        },
        "primary_color": null,
        "public": null,
        "snapshot_id": "MTY5NzgxNTI2MSwwMDAwMDAwMDExZTdkZTQ1N2FlZDM3ZDFkMzY3NGUzODU4YjQxMmYy",
        "tracks": {
          "href": "https://api.spotify.com/v1/playlists/37i9dQZF1DX9u7XXOp0l5L/tracks",
          "total": 125
        },
        "type": "playlist",
        "uri": "spotify:playlist:37i9dQZF1DX9u7XXOp0l5L"
      },
      {
        "collaborative": false,
        "description": "De nieuwste Hollandse hits. Cover: Stef Ekkel",
        "external_urls": {
          "spotify": "https://open.spotify.com/playlist/37i9dQZF1DX3fVDvRBemdr"
        },
        "href": "https://api.spotify.com/v1/playlists/37i9dQZF1DX3fVDvRBemdr",
        "id": "37i9dQZF1DX3fVDvRBemdr",
        "images": [
          {
            "height": null,
            "url": "https://i.scdn.co/image/ab67706f00000003909fe8a196b8d277be77410f",
            "width": null
          }
        ],
        "name": "Liever Hollands",
        "owner": {
          "display_name": "Spotify",
          "external_urls": {
            "spotify": "https://open.spotify.com/user/spotify"
          },
          "href": "https://api.spotify.com/v1/users/spotify",
          "id": "spotify",
          "type": "user",
          "uri": "spotify:user:spotify"
        },
        "primary_color": null,
        "public": null,
        "snapshot_id": "MTY5OTU3MDgwMCwwMDAwMDAwMGU2NDA4NzU5NDc4ZjUwNzFlNTAxN2QxZTMzOTliNTNi",
        "tracks": {
          "href": "https://api.spotify.com/v1/playlists/37i9dQZF1DX3fVDvRBemdr/tracks",
          "total": 70
        },
        "type": "playlist",
        "uri": "spotify:playlist:37i9dQZF1DX3fVDvRBemdr"
      },
      {
        "collaborative": false,
        "description": "Peaceful piano to help you slow down, breathe, and relax. ",
        "external_urls": {
          "spotify": "https://open.spotify.com/playlist/37i9dQZF1DX4sWSpwq3LiO"
        },
        "href": "https://api.spotify.com/v1/playlists/37i9dQZF1DX4sWSpwq3LiO",
        "id": "37i9dQZF1DX4sWSpwq3LiO",
        "images": [
          {
            "height": null,
            "url": "https://i.scdn.co/image/ab67706f00000003d073e656e546e43bc387ad79",
            "width": null
          }
        ],
        "name": "Peaceful Piano",
        "owner": {
          "display_name": "Spotify",
          "external_urls": {
            "spotify": "https://open.spotify.com/user/spotify"
          },
          "href": "https://api.spotify.com/v1/users/spotify",
          "id": "spotify",
          "type": "user",
          "uri": "spotify:user:spotify"
        },
        "primary_color": null,
        "public": null,
        "snapshot_id": "MTY5ODA2NTIxMywwMDAwMDAwMDllZDA3Y2YzODEyNzQ5ZjY3YmVjZGM5MGQ3YTliYjc0",
        "tracks": {
          "href": "https://api.spotify.com/v1/playlists/37i9dQZF1DX4sWSpwq3LiO/tracks",
          "total": 270
        },
        "type": "playlist",
        "uri": "spotify:playlist:37i9dQZF1DX4sWSpwq3LiO"
      },
      {
        "collaborative": false,
        "description": "Nog lang niet slapen met Roxy Dekker! ",
        "external_urls": {
          "spotify": "https://open.spotify.com/playlist/37i9dQZF1DX47uat5buwl0"
        },
        "href": "https://api.spotify.com/v1/playlists/37i9dQZF1DX47uat5buwl0",
        "id": "37i9dQZF1DX47uat5buwl0",
        "images": [
          {
            "height": null,
            "url": "https://i.scdn.co/image/ab67706f000000038aa888e89e7877308e7ba1e4",
            "width": null
          }
        ],
        "name": "Pre-Party Mood",
        "owner": {
          "display_name": "Spotify",
          "external_urls": {
            "spotify": "https://open.spotify.com/user/spotify"
          },
          "href": "https://api.spotify.com/v1/users/spotify",
          "id": "spotify",
          "type": "user",
          "uri": "spotify:user:spotify"
        },
        "primary_color": null,
        "public": null,
        "snapshot_id": "MTY5OTU3MDg2MCwwMDAwMDAwMDk0YjY5MTdkYjY2MjE3YzBlOTJhZDBjYTczNGE0ODFi",
        "tracks": {
          "href": "https://api.spotify.com/v1/playlists/37i9dQZF1DX47uat5buwl0/tracks",
          "total": 40
        },
        "type": "playlist",
        "uri": "spotify:playlist:37i9dQZF1DX47uat5buwl0"
      }
    ],
    "limit": 20,
    "next": "https://api.spotify.com/v1/browse/featured-playlists?country=NL&timestamp=2023-11-12T10%3A19%3A19&offset=20&limit=20",
    "offset": 0,
    "previous": null,
    "total": 24
  }
}
